{
    "batch": 32,
    "classes": [
        "emptySpace",
        "runningLow"
    ],
    "classnum": 2,
    "cnn": "faster_rcnn",
    "config_dir": "/home/lorenzo/Scrivania/script_dataset/config",
    "dati_reali": {
        "disparity": 30.0,
        "extension": ".jpg",
        "height": 480.0,
        "path": "/home/lorenzo/Scrivania/My_Dataset/ZED_footage",
        "percent": 1.0,
        "right": false,
        "width": 640.0
    },
    "dati_sintetici": {
        "disparity": 30.0,
        "extension": ".png",
        "height": 480.0,
        "path": "/home/lorenzo/Scrivania/My_Dataset/Dataset",
        "percent": 0.2,
        "right": false,
        "width": 640.0
    },
    "epoch": 30,
    "faster_rcnn": {
        "directory": "/home/lorenzo/Scrivania/faster-cnn",
        "iou_th": 0.5
    },
    "filters": 35,
    "new_dir_path": "/home/lorenzo/Scrivania/script_dataset/myDir",
    "synt_labels_file_prefix": "bb_frame",
    "test_dir": "/home/lorenzo/Scrivania/My_Dataset/test",
    "test_image_txt": "/home/lorenzo/Scrivania/script_dataset/config/test.txt",
    "train_image_txt": "/home/lorenzo/Scrivania/script_dataset/config/train.txt",
    "training_perc": 0.1,
    "valid_image_txt": "/home/lorenzo/Scrivania/script_dataset/config/valid.txt",
    "yolo": {
        "directory": "/home/lorenzo/Scrivania/darknet",
        "subdivisions": 8
    }
}